Análise de Textos
…
Outro exemplo:

library(tidytext)
library(dplyr)
library(janeaustenr)

d <- tibble(txt = prideprejudice)
d %>%
  unnest_tokens(word, txt)

## # A tibble: 122,204 x 1
##    word     
##    <chr>    
##  1 pride    
##  2 and      
##  3 prejudice
##  4 by       
##  5 jane     
##  6 austen   
##  7 chapter  
##  8 1        
##  9 it       
## 10 is       
## # ... with 122,194 more rows

d %>%
  unnest_tokens(sentence, txt, token = "sentences")

## # A tibble: 15,545 x 1
##    sentence                                                                  
##    <chr>                                                                     
##  1 "pride and prejudice"                                                     
##  2 "by jane austen"                                                          
##  3 "chapter 1"                                                               
##  4 "it is a truth universally acknowledged, that a single man in possession" 
##  5 "of a good fortune, must be in want of a wife."                           
##  6 "however little known the feelings or views of such a man may be on his"  
##  7 "first entering a neighbourhood, this truth is so well fixed in the minds"
##  8 "of the surrounding families, that he is considered the rightful property"
##  9 "of some one or other of their daughters."                                
## 10 "\"my dear mr."                                                           
## # ... with 15,535 more rows

d %>%
  unnest_tokens(ngram, txt, token = "ngrams", n = 2)

## # A tibble: 114,045 x 1
##    ngram        
##    <chr>        
##  1 pride and    
##  2 and prejudice
##  3 <NA>         
##  4 by jane      
##  5 jane austen  
##  6 <NA>         
##  7 <NA>         
##  8 <NA>         
##  9 chapter 1    
## 10 <NA>         
## # ... with 114,035 more rows

d %>%
  unnest_tokens(chapter, txt, token = "regex",
                pattern = "Chapter [\\\\d]")

## # A tibble: 10,721 x 1
##    chapter                                                                      
##    <chr>                                                                        
##  1 "pride and prejudice"                                                        
##  2 "by jane austen"                                                             
##  3 "chapter 1"                                                                  
##  4 "it is a truth universally acknowledged, that a single man in possession"    
##  5 "of a good fortune, must be in want of a wife."                              
##  6 "however little known the feelings or views of such a man may be on his"     
##  7 "first entering a neighbourhood, this truth is so well fixed in the minds"   
##  8 "of the surrounding families, that he is considered the rightful property"   
##  9 "of some one or other of their daughters."                                   
## 10 "\"my dear mr. bennet,\" said his lady to him one day, \"have you heard that"
## # ... with 10,711 more rows

d %>%
  unnest_tokens(shingle, txt, token = "character_shingles",
                n = 4)

## # A tibble: 506,732 x 1
##    shingle
##    <chr>  
##  1 prid   
##  2 ride   
##  3 idea   
##  4 dean   
##  5 eand   
##  6 andp   
##  7 ndpr   
##  8 dpre   
##  9 prej   
## 10 reju   
## # ... with 506,722 more rows

# custom function
d %>%
  unnest_tokens(word, txt, token = stringr::str_split,
                pattern = " ")

## # A tibble: 124,032 x 1
##    word       
##    <chr>      
##  1 "pride"    
##  2 "and"      
##  3 "prejudice"
##  4 ""         
##  5 "by"       
##  6 "jane"     
##  7 "austen"   
##  8 ""         
##  9 ""         
## 10 ""         
## # ... with 124,022 more rows
…
O formato tidy text

Função count():

Essa função é utilizada para contar o número de vezes que um token aparece.

tidy_hgwells %>%
  count(word, sort = TRUE)

## # A tibble: 11,830 x 2
##    word       n
##    <chr>  <int>
##  1 time     461
##  2 people   302
##  3 door     260
##  4 heard    249
##  5 black    232
##  6 stood    229
##  7 white    224
##  8 hand     218
##  9 kemp     213
## 10 eyes     210
## # ... with 11,820 more rows
…
Organizando objetos Document-Term Matrix

inaug_td <- tidy(inaug_dfm)
inaug_td

## # A tibble: 45,453 x 3
##    document        term            count
##    <chr>           <chr>           <dbl>
##  1 1789-Washington fellow-citizens     1
##  2 1797-Adams      fellow-citizens     3
##  3 1801-Jefferson  fellow-citizens     2
##  4 1809-Madison    fellow-citizens     1
##  5 1813-Madison    fellow-citizens     1
##  6 1817-Monroe     fellow-citizens     5
##  7 1821-Monroe     fellow-citizens     1
##  8 1841-Harrison   fellow-citizens    11
##  9 1845-Polk       fellow-citizens     1
## 10 1849-Taylor     fellow-citizens     1
## # ... with 45,443 more rows
…
Arrumando objetos corpus com metadados

data("acq")
acq

## <<VCorpus>>
## Metadata:  corpus specific: 0, document level (indexed): 0
## Content:  documents: 50

Arrumando objetos corpus com metadados

acq_td <- tidy(acq)
acq_td

## # A tibble: 50 x 16
##    author datetimestamp       description heading id    language origin topics
##    <chr>  <dttm>              <chr>       <chr>   <chr> <chr>    <chr>  <chr> 
##  1 <NA>   1987-02-26 12:18:06 ""          COMPUT~ 10    en       Reute~ YES   
##  2 <NA>   1987-02-26 12:19:15 ""          OHIO M~ 12    en       Reute~ YES   
##  3 <NA>   1987-02-26 12:49:56 ""          MCLEAN~ 44    en       Reute~ YES   
##  4 By Ca~ 1987-02-26 12:51:17 ""          CHEMLA~ 45    en       Reute~ YES   
##  5 <NA>   1987-02-26 13:08:33 ""          <COFAB~ 68    en       Reute~ YES   
##  6 <NA>   1987-02-26 13:32:37 ""          INVEST~ 96    en       Reute~ YES   
##  7 By Pa~ 1987-02-26 13:43:13 ""          AMERIC~ 110   en       Reute~ YES   
##  8 <NA>   1987-02-26 13:59:25 ""          HONG K~ 125   en       Reute~ YES   
##  9 <NA>   1987-02-26 14:01:28 ""          LIEBER~ 128   en       Reute~ YES   
## 10 <NA>   1987-02-26 14:08:27 ""          GULF A~ 134   en       Reute~ YES   
## # ... with 40 more rows, and 8 more variables: lewissplit <chr>,
## #   cgisplit <chr>, oldid <chr>, places <named list>, people <lgl>, orgs <lgl>,
## #   exchanges <lgl>, text <chr>

Arrumando objetos corpus com metadados

acq_tokens <- acq_td %>%
  select(-places) %>%
  unnest_tokens(word, text) %>%
  anti_join(stop_words, by = "word")

# most common words
acq_tokens %>%
  count(word, sort = TRUE)

## # A tibble: 1,566 x 2
##    word         n
##    <chr>    <int>
##  1 dlrs       100
##  2 pct         70
##  3 mln         65
##  4 company     63
##  5 shares      52
##  6 reuter      50
##  7 stock       46
##  8 offer       34
##  9 share       34
## 10 american    28
## # ... with 1,556 more rows
…
